{
  "browserSyncOptions" : {
    "proxy": {
    	 "target": "http://amstelhouse.localhost/wp/",
		 "ws": true
	 },
	 "open": true,
	 "port": 3030,
    "notify": false
  },
  "browserSyncWatchFiles" : [
    "./css/*.min.css",
    "./js/*.min.js",
    "./**/*.php"
  ],
  "paths" : {
    "log": "./log",
    "js": "./js",
    "css": "./css",
    "img": "./img",
		"imgsrc": "./src/img",
    "sass": "./sass",
    "node": "./node_modules/",
    "bower": "./bower_components/",
    "dev": "./src",
    "dist": "./dist",
    "distprod": "./dist-product",
    "vendor": "./js/vendor"
  }
}
